website, category, average-visit-duration, pages-per-visit, bounce-rate
google.com, Computers Electronics and Technology > Search Engines, 0:11:17, 8.55, 28.33%
youtube.com, Arts & Entertainment > TV Movies and Streaming, 0:21:13, 11.8, 20.23%
facebook.com, Computers Electronics and Technology > Social Networks and Online Communities, 0:10:03, 8.46, 32.73%
twitter.com, Computers Electronics and Technology > Social Networks and Online Communities, 0:10:25, 9.8, 31.97%
instagram.com, Computers Electronics and Technology > Social Networks and Online Communities, 0:07:51, 11.06, 34.86%
baidu.com, Computers Electronics and Technology > Search Engines, 0:05:48, 7.98, 20.76%
wikipedia.org, Reference Materials > Dictionaries and Encyclopedias, 0:03:56, 3.11, 56.86%
yandex.ru, Computers Electronics and Technology > Search Engines, 0:11:24, 9.36, 22.10%
yahoo.com, News and Media, 0:07:43, 5.75, 34.73%
xvideos.com, Adult, 0:10:01, 9.33, 20.86%
whatsapp.com, Computers Electronics and Technology > Social Networks and Online Communities, 0:03:26, 1.57, 72.10%
netflix.com, Arts & Entertainment > TV Movies and Streaming, 0:09:12, 4.31, 41.35%
amazon.com, E commerce and Shopping > Marketplace, 0:06:52, 8.58, 35.44%
xnxx.com, Adult, 0:08:46, 11.45, 13.40%
yahoo.co.jp, News and Media, 0:08:44, 6.6, 33.69%
live.com, Computers Electronics and Technology > Email, 0:07:23, 8.37, 18.86%
pornhub.com, Adult, 0:08:09, 6.98, 27.11%
zoom.us, Computers Electronics and Technology > Other Computers Electronics and Technology, 0:03:27, 2.93, 42.35%
reddit.com, Computers Electronics and Technology > Social Networks and Online Communities, 0:09:42, 6.56, 36.69%
tiktok.com, Computers Electronics and Technology > Social Networks and Online Communities, 0:03:57, 11.09, 45.21%
office.com, Computers Electronics and Technology > Programming and Developer Software, 0:09:42, 7.86, 28.40%
linkedin.com, Computers Electronics and Technology > Social Networks and Online Communities, 0:07:25, 6.75, 29.02%
vk.com, Computers Electronics and Technology > Social Networks and Online Communities, 0:13:43, 16.63, 24.87%
xhamster.com, Adult, 0:09:07, 7.36, 24.86%
discord.com, Computers Electronics and Technology > Social Networks and Online Communities, 0:06:58, 8.46, 47.84%
twitch.tv, Games > Video Games Consoles and Accessories, 0:08:35, 4.27, 28.77%
naver.com, News and Media, 0:20:30, 13, 22.66%
bing.com, Computers Electronics and Technology > Search Engines, 0:07:09, 5.3, 38.41%
roblox.com, Games > Video Games Consoles and Accessories, 0:15:51, 8.92, 18.74%
duckduckgo.com, Computers Electronics and Technology > Search Engines, 0:09:24, 7.34, 12.61%
bilibili.com, Arts & Entertainment > Animation and Comics Test, 0:18:17, 8.3, 20.65%
mail.ru, Computers Electronics and Technology > Email, 0:07:54, 6.48, 29.98%
pinterest.com, Computers Electronics and Technology > Social Networks and Online Communities, 0:05:18, 5.26, 44.97%
microsoft.com, Computers Electronics and Technology > Programming and Developer Software, 0:04:41, 3.88, 44.30%
microsoftonline.com, Computers Electronics and Technology > Programming and Developer Software, 0:02:01, 2.48, 42.82%
qq.com, News and Media, 0:03:57, 3.43, 44.77%
news.yahoo.co.jp, News and Media, 0:06:29, 4.59, 28.72%
fandom.com, Arts & Entertainment > Other Arts and Entertainment, 0:05:09, 4.17, 49.21%
msn.com, News and Media, 0:05:41, 4.39, 54.38%
google.com.br, Computers Electronics and Technology > Search Engines, 0:04:47, 12.89, 18.87%
globo.com, News and Media, 0:04:15, 2.38, 49.01%
ebay.com, E commerce and Shopping > Marketplace, 0:06:44, 6.88, 36.52%
samsung.com, Computers Electronics and Technology > Consumer Electronics, 0:02:30, 2.3, 51.81%
accuweather.com, Science and Education > Weather, 0:00:57, 2.27, 35.86%
weather.com, Science and Education > Weather, 0:00:57, 1.82, 37.98%
realsrv.com, Adult, 0:01:20, 1.95, 27.45%
ok.ru, Computers Electronics and Technology > Social Networks and Online Communities, 0:11:43, 12.95, 24.89%
bbc.co.uk, News and Media, 0:04:57, 3.22, 46.07%
docomo.ne.jp, Computers Electronics and Technology > Telecommunications, 0:03:35, 4.53, 29.46%
quora.com, Reference Materials > Dictionaries and Encyclopedias, 0:02:38, 2.07, 64.49%