﻿website, category
google.com, Computers Electronics and Technology > Search Engines
youtube.com, Arts and Entertainment > TV Movies and Streaming
facebook.com, Computers Electronics and Technology > Social Networks and Online Communities
twitter.com, Computers Electronics and Technology > Social Networks and Online Communities
instagram.com, Computers Electronics and Technology > Social Networks and Online Communities
wikipedia.org, Reference Materials > Dictionaries and Encyclopedias
baidu.com, Computers Electronics and Technology > Search Engines
yahoo.com, News and Media
yandex.ru, Computers Electronics and Technology > Search Engines
xvideos.com, Adult
whatsapp.com, Computers Electronics and Technology > Social Networks and Online Communities
zoom.us, Computers Electronics and Technology > Computers Electronics and Technology
amazon.com, E commerce and Shopping > Marketplace
xnxx.com, Adult
live.com, Computers Electronics and Technology > Email
netflix.com, Arts and Entertainment > TV Movies and Streaming
yahoo.co.jp, News and Media
pornhub.com, Adult
reddit.com, Computers Electronics and Technology > Social Networks and Online Communities
office.com, Computers Electronics and Technology > Programming and Developer Software
vk.com, Computers Electronics and Technology > Social Networks and Online Communities
linkedin.com, Computers Electronics and Technology > Social Networks and Online Communities
discord.com, Computers Electronics and Technology > Social Networks and Online Communities
pinterest.com, Computers Electronics and Technology > Social Networks and Online Communities
xhamster.com, Adult
twitch.tv, Games > Video Games Consoles and Accessories
naver.com, News and Media
tiktok.com, Computers Electronics and Technology > Social Networks and Online Communities
microsoft.com, Computers Electronics and Technology > Programming and Developer Software
bing.com, Computers Electronics and Technology > Search Engines
qq.com, News and Media
mail.ru, Computers Electronics and Technology > Email
roblox.com, Games > Video Games Consoles and Accessories
duckduckgo.com, Computers Electronics and Technology > Search Engines
microsoftonline.com, Computers Electronics and Technology > Programming and Developer Software
globo.com, News and Media
ebay.com, E commerce and Shopping > Marketplace
jerkmate.com, Adult
google.com.br, Computers Electronics and Technology > Search Engines
msn.com, News and Media
fandom.com, Arts and Entertainment > Arts and Entertainment
news.yahoo.co.jp, News and Media
bilibili.com, Arts and Entertainment > Animation and Comics
bbc.co.uk, News and Media
samsung.com, Computers Electronics and Technology > Consumer Electronics
uol.com.br, News and Media
docomo.ne.jp, Computers Electronics and Technology > Telecommunications
ok.ru, Computers Electronics and Technology > Social Networks and Online Communities
weather.com, Science and Education > Weather
accuweather.com, Science and Education > Weather